Despite changes to clock stoppage, Big Ten teams see similar amount of offensive plays – Strober’s Sportsblog
…
ℹ Use `spec()` to retrieve the full column specification for this data.
ℹ Specify the column types or set `show_col_types = FALSE` to quiet this message.

Code

  bigten23 <- plays_2023 |>  filter(Conference == "Big Ten Conference")
  bigten24 <- plays_2024 |>  filter(Conference == "Big Ten Conference")

Here we can see the results from the data just involving the Big Ten Conference.

Code

bigten23 |> group_by(OffensivePlays)

# A tibble: 180 × 54
# Groups:   OffensivePlays [39]
    Game Date       HomeAway Opponent    Result PassingCmp PassingAtt PassingPct
   <dbl> <date>     <chr>    <chr>       <chr>       <dbl>      <dbl>      <dbl>
 1     1 2023-09-02 <NA>     East Carol… W (30…         26         31       83.9
 2     2 2023-09-09 <NA>     Nevada-Las… W (35…         23         28       82.1
 3     3 2023-09-16 <NA>     Bowling Gr… W (31…          8         13       61.5
 4     4 2023-09-23 <NA>     Rutgers     W (31…         15         21       71.4
 5     5 2023-09-30 @        Nebraska    W (45…         16         23       69.6
 6     6 2023-10-07 @        Minnesota   W (52…         16         23       69.6
 7     7 2023-10-14 <NA>     Indiana     W (52…         19         22       86.4
 8     8 2023-10-21 @        Michigan S… W (49…         28         35       80  
 9     9 2023-11-04 <NA>     Purdue      W (41…         24         37       64.9
10    10 2023-11-11 @        Penn State  W (24…          7          8       87.5
# ℹ 170 more rows
# ℹ 46 more variables: PassingYds <dbl>, PassingTD <dbl>, RushingAtt <dbl>,
#   RushingYds <dbl>, RushingAvg <dbl>, RushingTD <dbl>, OffensivePlays <dbl>,
#   OffensiveYards <dbl>, OffenseAvg <dbl>, FirstDownPass <dbl>,
#   FirstDownRush <dbl>, FirstDownPen <dbl>, FirstDownTotal <dbl>,
#   Penalties <dbl>, PenaltyYds <dbl>, Fumbles <dbl>, Interceptions <dbl>,
#   TotalTurnovers <dbl>, TeamFull <chr>, TeamURL <chr>, Outcome <chr>, …

Code

bigten24 |> group_by(OffensivePlays)

# A tibble: 96 × 54
# Groups:   OffensivePlays [35]
    Game Date       HomeAway Opponent    Result PassingCmp PassingAtt PassingPct
   <dbl> <date>     <chr>    <chr>       <chr>       <dbl>      <dbl>      <dbl>
 1     1 2024-08-31 <NA>     Florida In… W (31…         15         25       60  
 2     2 2024-09-06 <NA>     Western Il… W (77…         19         21       90.5
 3     3 2024-09-14 @        UCLA        W (42…         25         33       75.8
 4     4 2024-09-21 <NA>     Charlotte   W (52…         18         27       66.7
 5     5 2024-09-28 <NA>     Maryland    W (42…         22         33       66.7
 6     6 2024-10-05 @        Northweste… W (41…         25         33       75.8
 7     1 2024-08-31 <NA>     Akron       W (52…         18         31       58.1
 8     2 2024-09-07 <NA>     Western Mi… W (56…         25         33       75.8
 9     3 2024-09-21 <NA>     Marshall    W (49…         18         26       69.2
10     4 2024-09-28 @        Michigan S… W (38…         26         40       65  
# ℹ 86 more rows
# ℹ 46 more variables: PassingYds <dbl>, PassingTD <dbl>, RushingAtt <dbl>,
#   RushingYds <dbl>, RushingAvg <dbl>, RushingTD <dbl>, OffensivePlays <dbl>,
#   OffensiveYards <dbl>, OffenseAvg <dbl>, FirstDownPass <dbl>,
#   FirstDownRush <dbl>, FirstDownPen <dbl>, FirstDownTotal <dbl>,
#   Penalties <dbl>, PenaltyYds <dbl>, Fumbles <dbl>, Interceptions <dbl>,
#   TotalTurnovers <dbl>, TeamFull <chr>, TeamURL <chr>, Outcome <chr>, …
…
