Terps Historic Start Reveals Trends of Good Kevin Willard Teams – Strober’s Sportsblog
…
  )

print(maryland_data)

# A tibble: 71 × 47
   Season     Game Date       Opponent    HomeAway W_L   TeamScore OpponentScore
   <chr>     <dbl> <date>     <chr>       <chr>    <chr>     <dbl>         <dbl>
 1 2022-2023     1 2022-11-07 Niagara     <NA>     W            71            49
 2 2022-2023     2 2022-11-10 Western Ca… <NA>     W            71            51
 3 2022-2023     3 2022-11-15 Binghamton  <NA>     W            76            52
 4 2022-2023     4 2022-11-19 Saint Louis N        W            95            67
 5 2022-2023     5 2022-11-20 Miami (FL)  N        W            88            70
 6 2022-2023     6 2022-11-25 Coppin Sta… <NA>     W            95            79
 7 2022-2023     7 2022-11-29 Louisville  @        W            79            54
 8 2022-2023     8 2022-12-02 Illinois    <NA>     W            71            66
 9 2022-2023     9 2022-12-06 Wisconsin   @        L            59            64
10 2022-2023    10 2022-12-11 Tennessee   N        L            53            56
# ℹ 61 more rows
# ℹ 39 more variables: TeamFG <dbl>, TeamFGA <dbl>, TeamFGPCT <dbl>,
#   Team3P <dbl>, Team3PA <dbl>, Team3PPCT <dbl>, TeamFT <dbl>, TeamFTA <dbl>,
#   TeamFTPCT <dbl>, TeamOffRebounds <dbl>, TeamTotalRebounds <dbl>,
#   TeamAssists <dbl>, TeamSteals <dbl>, TeamBlocks <dbl>, TeamTurnovers <dbl>,
#   TeamPersonalFouls <dbl>, OpponentFG <dbl>, OpponentFGA <dbl>,
#   OpponentFGPCT <dbl>, Opponent3P <dbl>, Opponent3PA <dbl>, …
…
  )

print(setonhall_data)

# A tibble: 221 × 47
   Season     Game Date       Opponent    HomeAway W_L   TeamScore OpponentScore
   <chr>     <dbl> <date>     <chr>       <chr>    <chr>     <dbl>         <dbl>
 1 2021-2022     1 2021-11-10 Fairleigh … <NA>     W            93            49
 2 2021-2022     2 2021-11-14 Yale        <NA>     W            80            44
 3 2021-2022     3 2021-11-16 Michigan    @        W            67            65
 4 2021-2022     4 2021-11-22 Ohio State  N        L            76            79
 5 2021-2022     5 2021-11-24 California  N        W            62            59
 6 2021-2022     6 2021-11-28 Bethune-Co… <NA>     W            84            70
 7 2021-2022     7 2021-12-01 Wagner      <NA>     W            85            63
 8 2021-2022     8 2021-12-04 Nyack       <NA>     W           113            67
 9 2021-2022     9 2021-12-09 Texas       <NA>     W            64            60
10 2021-2022    10 2021-12-12 Rutgers     <NA>     W            77            63
# ℹ 211 more rows
# ℹ 39 more variables: TeamFG <dbl>, TeamFGA <dbl>, TeamFGPCT <dbl>,
#   Team3P <dbl>, Team3PA <dbl>, Team3PPCT <dbl>, TeamFT <dbl>, TeamFTA <dbl>,
#   TeamFTPCT <dbl>, TeamOffRebounds <dbl>, TeamTotalRebounds <dbl>,
#   TeamAssists <dbl>, TeamSteals <dbl>, TeamBlocks <dbl>, TeamTurnovers <dbl>,
#   TeamPersonalFouls <dbl>, OpponentFG <dbl>, OpponentFGA <dbl>,
#   OpponentFGPCT <dbl>, Opponent3P <dbl>, Opponent3PA <dbl>, …
…
