Derik Queen’s Debut Points Terps Toward the Right Direction – Strober's Sportsblog
…
  )

print(maryland_data)

# A tibble: 297 × 51
   Season     Game Date       TeamFull         Opponent HomeAway W_L   TeamScore
   <chr>     <dbl> <date>     <chr>            <chr>    <chr>    <chr>     <dbl>
 1 2022-2023     1 2022-11-07 Maryland Terrap… Niagara  <NA>     W            71
 2 2022-2023     2 2022-11-10 Maryland Terrap… Western… <NA>     W            71
 3 2022-2023     3 2022-11-15 Maryland Terrap… Bingham… <NA>     W            76
 4 2022-2023     4 2022-11-19 Maryland Terrap… Saint L… N        W            95
 5 2022-2023     5 2022-11-20 Maryland Terrap… Miami (… N        W            88
 6 2022-2023     6 2022-11-25 Maryland Terrap… Coppin … <NA>     W            95
 7 2022-2023     7 2022-11-29 Maryland Terrap… Louisvi… @        W            79
 8 2022-2023     8 2022-12-02 Maryland Terrap… Illinois <NA>     W            71
 9 2022-2023     9 2022-12-06 Maryland Terrap… Wiscons… @        L            59
10 2022-2023    10 2022-12-11 Maryland Terrap… Tenness… N        L            53
# ℹ 287 more rows
# ℹ 43 more variables: OpponentScore <dbl>, TeamFG <dbl>, TeamFGA <dbl>,
#   TeamFGPCT <dbl>, Team3P <dbl>, Team3PA <dbl>, Team3PPCT <dbl>,
#   TeamFT <dbl>, TeamFTA <dbl>, TeamFTPCT <dbl>, TeamOffRebounds <dbl>,
#   TeamTotalRebounds <dbl>, TeamAssists <dbl>, TeamSteals <dbl>,
#   TeamBlocks <dbl>, TeamTurnovers <dbl>, TeamPersonalFouls <dbl>,
#   OpponentFG <dbl>, OpponentFGA <dbl>, OpponentFGPCT <dbl>, …
…
