cbb – Strober's Sportsblog
…
Residual standard error: 9.503 on 98133 degrees of freedom
  (26 observations deleted due to missingness)
Multiple R-squared:  0.6729,    Adjusted R-squared:  0.6729 
F-statistic: 2.019e+05 on 1 and 98133 DF,  p-value: < 2.2e-16

residualmodel <- residualmodel |> filter(!is.na(FGPctMargin))
residualmodel <- residualmodel |> mutate(predicted = predict(fit), residuals = residuals(fit))

residualmodel |> filter(Conference == 'Big Ten') |> arrange(desc(residuals)) |> select(Date, Team, Opponent, W_L, differential, FGPctMargin, predicted, residuals)

# A tibble: 1,046 × 8
   Date       Team   Opponent W_L   differential FGPctMargin predicted residuals
   <date>     <chr>  <chr>    <chr>        <dbl>       <dbl>     <dbl>     <dbl>
 1 2020-12-15 North… Quincy   W               52      0.089      11.4       40.6
 2 2020-11-25 Nebra… McNeese… W               47      0.118      15.0       32.0
 3 2020-11-25 Illin… North C… W               62      0.243      30.3       31.7
 4 2021-11-22 Iowa   Western… W               48      0.147      18.5       29.5
 5 2021-11-16 Iowa   North C… W               17     -0.098     -11.5       28.5
 6 2020-12-05 North… Chicago… W               45      0.15       18.9       26.1
 7 2014-11-16 Illin… Coppin … W               58      0.258      32.1       25.9
 8 2020-12-13 Iowa   Norther… W               53      0.219      27.4       25.6
 9 2020-12-10 Minne… UMKC     W               29      0.0510      6.78      22.2
10 2022-01-14 Purdue Nebraska W               27      0.0360      4.94      22.1
# ℹ 1,036 more rows
…
Residual standard error: 16.61 on 98133 degrees of freedom
  (26 observations deleted due to missingness)
Multiple R-squared:  0.0009973, Adjusted R-squared:  0.0009871 
F-statistic: 97.97 on 1 and 98133 DF,  p-value: < 2.2e-16

fouls <- fouls |> filter(!is.na(TotalFouls))
fouls$predicted <- predict(pfit)
fouls$residuals <- residuals(pfit)

fouls |> arrange(desc(residuals)) |> select(Team, Opponent, W_L, TeamScore, OpponentScore, TotalFouls, residuals)

# A tibble: 98,135 × 7
   Team              Opponent W_L   TeamScore OpponentScore TotalFouls residuals
   <chr>             <chr>    <chr>     <dbl>         <dbl>      <dbl>     <dbl>
 1 Bryant            Thomas … W           147            39         34     107. 
 2 McNeese State     Dallas … W           140            37         33     102. 
 3 Appalachian State Toccoa … W           135            34         35      99.7
 4 Purdue Fort Wayne <NA>     W           130            34         19      93.6
 5 James Madison     Carlow   W           135            40         29      93.3
 6 North Dakota Sta… Oak Hil… W           108            14         12      91.1
 7 Florida Internat… Trinity… W           146            55         39      90.0
 8 Lamar             Howard … W           121            32         35      87.7
 9 Georgia Southern  Carver … W           139            51         38      86.9
10 Youngstown State  Francis… W           134            46         35      86.7
# ℹ 98,125 more rows
