Wizards lineup tendencies reveal commitment to developing youth – Strober’s Sportsblog
…
team_id <- 1610612764

lineups <- nba_leaguedashlineups(team_id = team_id, season = "2024-25")

everyone <- nba_leaguedashlineups(season = "2024-25")

current_wiz <- lineups [[1]]
everyonenba <- everyone [[1]]

Code

current_wiz |>
  group_by(GROUP_NAME, PLUS_MINUS, MIN)

# A tibble: 95 × 57
# Groups:   GROUP_NAME, PLUS_MINUS, MIN [95]
   GROUP_SET GROUP_ID     GROUP_NAME TEAM_ID TEAM_ABBREVIATION GP    W     L    
   <chr>     <chr>        <chr>      <chr>   <chr>             <chr> <chr> <chr>
 1 Lineups   -1628398-16… K. Kuzma … 161061… WAS               7     1     6    
 2 Lineups   -1629673-16… J. Poole … 161061… WAS               7     1     6    
 3 Lineups   -202685-162… J. Valanč… 161061… WAS               10    2     8    
 4 Lineups   -1630557-16… C. Kisper… 161061… WAS               9     1     8    
 5 Lineups   -202685-163… J. Valanč… 161061… WAS               10    2     8    
 6 Lineups   -202685-162… J. Valanč… 161061… WAS               4     0     4    
 7 Lineups   -1628963-16… M. Bagley… 161061… WAS               4     0     4    
 8 Lineups   -202685-162… J. Valanč… 161061… WAS               4     1     3    
 9 Lineups   -1629673-16… J. Poole … 161061… WAS               4     0     4    
10 Lineups   -1628398-16… K. Kuzma … 161061… WAS               4     1     3    
# ℹ 85 more rows
# ℹ 49 more variables: W_PCT <chr>, MIN <chr>, FGM <chr>, FGA <chr>,
#   FG_PCT <chr>, FG3M <chr>, FG3A <chr>, FG3_PCT <chr>, FTM <chr>, FTA <chr>,
#   FT_PCT <chr>, OREB <chr>, DREB <chr>, REB <chr>, AST <chr>, TOV <chr>,
#   STL <chr>, BLK <chr>, BLKA <chr>, PF <chr>, PFD <chr>, PTS <chr>,
#   PLUS_MINUS <chr>, GP_RANK <chr>, W_RANK <chr>, L_RANK <chr>,
#   W_PCT_RANK <chr>, MIN_RANK <chr>, FGM_RANK <chr>, FGA_RANK <chr>, …
…
